0
210
  9
 32
121
156
125
 81
155
 16
 67
274
275
297
168
249
276
267
169
180
284
193
254
157
 10
241
226
128
135
104
 45
 59
 96
236
 89
134
 80
 49
139
285
 87
224
166
147
106
246
 30
291
257
  3
205
 65
144
 39
 29
196
116
255
260
 83
206
101
187
207
222
294
 94
170
 69
108
239
102
 38
216
179
151
 79
214
 70
 25
209
 20
171
126
 12
159
152
263
197
262
 33
242
 60
231
 76
288
183
 57
 27
117
230
234
270
 22
150
213
 90
146
 82
 28
235
 35
229
119
 55
 53
220
215
  2
  4
 95
265
177
208
 58
251
258
 68
237
174
109
100
 51
198
269
266
  6
199
228
 31
172
176
 78
253
 24
138
 97
282
173
244
190
 26
161
 15
136
165
286
 75
227
271
212
283
 19
132
129
 74
175
 40
 34
248
 14
185
115
292
112
145
287
 47
140
 92
114
240
 56
 23
164
130
122
 43
181
295
120
  8
252
 84
184
162
278
189
160
280
111
273
299
118
217
225
 88
223
289
 85
154
 93
186
277
 98
113
 86
 46
 91
261
204
194
 37
153
201
178
 77
290
298
238
259
107
 17
 44
149
167
133
124
148
256
 63
 36
158
218
  7
 21
 18
 62
 66
200
141
279
123
 11
250
281
 50
163
  5
233
 42
203
293
 73
232
 61
137
103
 48
 72
211
221
272
264
 54
 71
 41
  1
143
195
142
202
245
 13
192
300
243
182
247
105
268
219
110
 64
131
 52
127
 99
191
188
296
301
302
303
304
305
306
307
308
309
310
311
312
313
314
315
316
317
318
319
320
321
322
323
324
325
326
327
328
329
330
331
332
333
334
335
336
337
338
339
340
341
342
343
344
345
346
347
348
349
350
351
352
353
354
355
356
357
358
359
360
361
362
363
364
365
366
367
368
369
370
371
372
373
374
375
376
377
378
379
380
381
382
383
384
385
386
387
388
389
390
391
392
393
394
395
396
397
398
399
400
401
402
403
404
405
406
407
408
409
410
411
412
413
414
415
416
417
418
419
420
421
422
423
424
425
426
427
428
429
430
431
432
433
434
435
436
437
438
439
440
441
442
443
444
445
446
447
448
449
450
451
452
453
454
455
456
457
458
459
460
461
462
463
464
465
466
467
468
469
470
471
472
473
474
475
476
477
478
479
480
481
482
483
484
485
486
487
488
489
490
491
492
493
494
495
496
497
498
499
500
501
502
503
504
505
506
507
508
509
510
511
512
513
514
515
516
517
518
519
520
521
522
523
524
525
526
527
528
529
530
531
532
533
534
535
536
537
538
539
540
541
542
543
544
545
546
547
548
549
550
551
552
553
554
555
556
557
558
559
560
561
562
563
564
565
566
567
568
569
570
571
572
573
574
575
576
577
578
579
580
581
582
583
584
585
586
587
588
589
590
591
592
593
594
595
596
597
598
599
600
601
602
603
604
605
606
607
608
609
610
611
612
613
614
615
616
617
618
619
620
621
622
623
624
625
626
627
628
629
630
631
632
633
634
635
636
637
638
639
640
641
642
643
644
645
646
647
648
649
650
651
652
653
654
655
656
657
658
659
660
661
662
663
664
665
666
667
668
669
670
671
672
673
674
675
676
677
678
679
680
681
682
683
684
685
686
687
688
689
690
691
692
693
694
695
696
697
698
699
700
701
702
703
704
705
706
707
708
709
710
711
712
713
714
715
716
717
718
719
720
721
722
723
724
725
726
727
728
729
730
731
732
733
734
735
736
737
738
739
740
741
742
743
744
745
746
747
748
749
750
751
752
753
754
755
756
757
758
759
760
761
762
763
764
765
766
767
768
769
770
771
772
773
774
775
776
777
778
779
780
781
782
783
784
785
786
787
788
789
790
791
792
793
794
795
796
797
798
799
800
801
802
803
804
805
806
807
808
809
810
811
812
813
814
815
816
817
818
819
820
821
822
823
824
825
826
827
828
829
830
831
832
833
834
835
836
837
838
839
840
841
842
843
844
845
846
847
848
849
850
851
852
853
854
855
856
857
858
859
860
861
862
863
864
865
866
867
868
869
870
871
872
873
874
875
876
877
878
879
880
881
882
883
884
885
886
887
888
889
890
891
892
893
894
895
896
897
898
899
900
901
902
903
904
905
906
907
908
909
910
911
912
913
914
915
916
917
918
919
920
921
922
923
924
925
926
927
928
929
930
931
932
933
934
935
936
937
938
939
940
941
942
943
944
945
946
947
948
949
950
951
952
953
954
955
956
957
958
959
960
961
962
963
964
965
966
967
968
969
970
971
972
973
974
975
976
977
978
979
980
981
982
983
984
985
986
987
988
989
990
991
992
993
994
995
996
997
998
999