65
649
670
150
387
656
876
372
312
308
824
79
853
445
104
823
393
890
877
3
79
557
730
688
892
651
755
437
543
220
498
271
333
887
795
971
208
418
702
979
675
387
824
463
77
845
939
838
740
96
231
358
118
32
759
629
997
539
977
453
970
870
194
37
16
645
753
927
681
558
652
895
233
688
376
66
976
146
101
790
812
385
971
593
553
10
813
848
193
329
316
778
205
655
74
296
349
588
672
591
330
446
74
970
89
455
771
906
495
438
447
942
730
109
371
728
170
347
727
108
542
917
174
428
332
272
643
861
486
619
365
150
40
222
902
926
943
941
298
695
502
985
912
334
441
212
133
944
753
784
292
801
811
73
193
712
119
854
329
317
5
610
49
279
412
28
450
7
277
330
845
332
476
931
897
586
156
469
947
950
984
125
21
791
312
270
877
911
631
163
40
525
713
735
347
499
953
250
598
123
629
879
732
398
558
530
824
999
922
831
323
527
664
285
418
689
75
753
28
677
962
870
894
55
26
549
782
590
763
424
454
180
201
648
258
287
132
871
694
439
315
875
105
55
532
871
886
474
918
195
949
911
530
700
484
219
436
900
388
267
617
485
178
66
253
35
501
910
160
181
768
126
808
392
919
207
54
900
783
118
27
545
834
11
346
363
709
740
781
54
253
201
536
831
277
800
952
323
97
323
676
488
204
381
389
681
718
845
27
877
920
375
101
740
140
640
69
470
659
621
105
705
327
726
260
754
197
835
93
501
279
250
539
215
383
788
459
560
516
896
577
238
477
102
320
428
108
514
454
656
519
390
774
90
424
689
959
812
542
725
192
94
847
51
298
210
65
216
664
842
731
583
830
360
42
769
420
194
157
923
257
275
163
737
889
473
848
881
371
804
98
555
884
936
52
211
931
886
478
816
993
507
724
971
946
385
171
83
592
964
51
968
546
567
537
744
392
844
832
290
429
288
100
222
665
542
959
90
75
699
719
919
573
959
632
989
344
326
888
865
270
604
712
812
999
900
469
360
728
164
931
421
612
27
932
916
616
903
519
698
916
272
994
320
335
704
508
109
618
21
835
918
448
799
991
341
786
408
634
195
475
360
808
604
835
336
494
420
215
277
459
544
202
184
902
347
659
315
590
638
698
808
915
739
149
927
549
601
888
204
989
525
968
248
589
459
995
188
764
219
70
116
93
727
924
161
36
827
353
561
359
343
53
16
568
53
486
456
858
135
387
402
637
244
939
904
995
250
932
545
878
169
438
137
564
806
984
416
964
23
230
902
636
693
859
595
975
418
232
556
559
430
510
562
268
764
991
94
141
309
506
385
110
351
82
289
169
201
396
671
488
943
257
483
828
339
370
673
736
597
516
194
416
204
928
642
856
818
854
274
134
465
220
62
753
121
844
15
909
286
510
229
882
776
396
465
799
43
760
690
462
619
968
122
876
887
251
4
627
171
173
723
680
852
847
516
397
918
939
293
327
463
835
471
751
989
788
129
297
589
895
544
491
22
440
833
659
983
667
585
799
147
468
326
779
977
944
596
795
405
617
311
13
548
542
222
716
42
767
351
306
245
449
148
394
552
584
589
973
696
453
261
688
843
193
375
689
786
192
574
455
18
929
529
465
665
827
442
220
241
705
672
535
270
199
605
5
483
58
768
163
38
443
642
271
224
132
272
739
389
320
719
264
444
443
410
470
777
715
586
396
196
432
73
731
22
840
330
771
897
136
321
514
415
240
375
90
712
487
116
842
597
204
824
502
110
208
200
264
101
595
169
126
495
934
294
220
639
851
298
3
113
885
967
164
145
602
310
225
31
780
628
132
586
749
336
29
448
817
579
44
220
247
197
55
490
526
44
977
31
666
277
338
674
327
369
602
472
417
255
423
834
672
637
308
620
452
399
191
90
850
617
292
384
568
323
156
237
338
271
175
859
635
382
554
199
583
165
681
918
476
35
235
389
220
680
446
561
846
575
638
392
468
188
489
982
991
778
781
685
441
795
433
704
223
846
212
834
897
652
768
361
55
418
113
153
561
905
743
735
975
272
8
24
850
496
674
980
789
407
210
21
357
65
650
386
159
881
551
736
576
510
285
346
669
438
332
257
27
205
109
540
160
993
61
120
726
544
536
791
785
690
812
928
136
114
808
681
687
148
244
216
317
204
836
770
157
405
205
995
284
863
685
179
685
995
655
400
724
514
398
786
672
765
524
833
694
639
9
785
838
155
405
370
649
557
586
225
75
188
375
254
131
123
829
412
932
839
561
340
